R para el análisis estadístico de datos - 3 Revisión de elementos estadísticos básicos
…
[1] "a_b"

paste("a","b")

[1] "a b"

paste0("a","b")

[1] "ab"

concentradohogar %>% 
  dplyr::rename_at(vars(clase_hog, sexo_jefe), ~ paste0(.x, "_2022")) %>% # sufijo
  select(clase_hog_2022, sexo_jefe_2022)

# A tibble: 90,102 × 2
   clase_hog_2022 sexo_jefe_2022
            <dbl>          <dbl>
 1              3              2
 2              2              1
 3              2              1
 4              3              1
 5              1              1
 6              2              1
 7              2              2
 8              1              2
 9              2              2
10              2              1
# ℹ 90,092 more rows

concentradohogar %>% 
  dplyr::rename_at(vars(clase_hog, sexo_jefe), ~ paste0("desc_", .x)) %>% # prefijo
  select(starts_with("desc"))

# A tibble: 90,102 × 2
   desc_clase_hog desc_sexo_jefe
            <dbl>          <dbl>
 1              3              2
 2              2              1
 3              2              1
 4              3              1
 5              1              1
 6              2              1
 7              2              2
 8              1              2
 9              2              2
10              2              1
# ℹ 90,092 more rows
…
