Uso de R para la investigación social - 6 Análisis descriptivo II
…
concentradohogar %>% 
  dplyr::summarise(nombre_indicador=mean(ing_cor, na.rm=T)) # las funciones también pueden tener atributos

# A tibble: 1 × 1
  nombre_indicador
             <dbl>
1           61490.

Funciona con group_by() y con .by()

concentradohogar %>% 
  dplyr::summarise(nombre_indicador=mean(ing_cor, na.rm=T), .by=ent) # las funciones también pueden tener atributos

# A tibble: 32 × 2
   ent   nombre_indicador
   <chr>            <dbl>
 1 01              73162.
 2 02              80341.
 3 03              87777.
 4 04              57921.
 5 05              69761.
 6 06              63841.
 7 07              40765.
 8 08              73981.
 9 09              77909.
10 10              53608.
# ℹ 22 more rows
…
